{
  "schemaVersion": "snapshot.v1",
  "screenKey": "persona-scenario-validate-3-1772237658550",
  "title": "Validate persona scenario #3 Snapshot",
  "generatedAt": "2026-02-28T00:14:18.566Z",
  "stepKey": "persona-scenario-validate-3",
  "status": "blocked",
  "view": {
    "title": "Validate persona scenario #3",
    "subtitle": "Step blocked: persona-scenario-validate-3: Potential SQL-injection probe broke the normal list/create flow.",
    "blocks": [
      {
        "type": "alert",
        "title": "Persona Scenario Validate 3 blocked",
        "message": "Step blocked: persona-scenario-validate-3: Potential SQL-injection probe broke the normal list/create flow.",
        "tone": "error"
      },
      {
        "type": "table",
        "title": "Rows",
        "columns": [
          "id",
          "name",
          "slug",
          "type",
          "status",
          "timezone",
          "currency",
          "logoUrl"
        ],
        "rows": [
          [
            "3AH7RbiUErLFSvE2rZbu7JIDXjZ",
            "Saga uc-100-the-black-hat-hacker-spectre",
            "uc-100-the-black-hat-hacker-spectre-va4sgknf",
            "small_business",
            "active",
            "UTC",
            "USD",
            null
          ],
          [
            "3AH7OEFARIPdKfLgpvpIO9PWcFZ",
            "Saga uc-100-the-appointment-heavy-professional-dr-ch",
            "uc-100-the-appointment-heavy-professional-dr-ch-en8e1ofl",
            "small_business",
            "active",
            "UTC",
            "USD",
            null
          ],
          [
            "3AH7KuMvdXsBqOI22mY7QESLREC",
            "Saga uc-10-the-multi-location-owner-marcus",
            "uc-10-the-multi-location-owner-marcus-zb0skbmq",
            "small_business",
            "active",
            "UTC",
            "USD",
            null
          ],
          [
            "3AH7KLzkwF8HiTrs5CWxXVaLiJP",
            "Saga uc-10-the-confused-multi-biz-user-sam-payment-shadow",
            "uc-10-the-confused-multi-biz-user-sam-payment-shadow-kxa9v0bx",
            "small_business",
            "active",
            "UTC",
            "USD",
            null
          ],
          [
            "3AH7I2KnaudHSbhwVsiT20GtNUt",
            "Saga uc-10-the-confused-multi-biz-user-sam",
            "uc-10-the-confused-multi-biz-user-sam-qw1ledsz",
            "small_business",
            "active",
            "UTC",
            "USD",
            null
          ]
        ]
      }
    ]
  },
  "rawData": {
    "stepKey": "persona-scenario-validate-3",
    "error": "persona-scenario-validate-3: Potential SQL-injection probe broke the normal list/create flow.",
    "resultPayload": {
      "note": "Step blocked: persona-scenario-validate-3: Potential SQL-injection probe broke the normal list/create flow.",
      "evidence": {
        "error": "persona-scenario-validate-3: Potential SQL-injection probe broke the normal list/create flow.",
        "failed": false,
        "blocked": true,
        "skipped": false,
        "created": {
          "id": "3AH7Uar6baVAhqcHoVG1pxd2Gfv",
          "name": "Robert'); DROP TABLE bizes;-- xug3",
          "slug": "sql-safe-1yj3azry",
          "type": "small_business",
          "logoUrl": null,
          "timezone": "UTC",
          "currency": "USD",
          "status": "active",
          "metadata": {},
          "createdAt": "2026-02-28T00:14:18.335Z",
          "updatedAt": "2026-02-28T00:14:18.335Z",
          "deletedAt": null,
          "createdBy": null,
          "updatedBy": null,
          "deletedBy": null
        },
        "rows": [
          {
            "id": "3AH7RbiUErLFSvE2rZbu7JIDXjZ",
            "name": "Saga uc-100-the-black-hat-hacker-spectre",
            "slug": "uc-100-the-black-hat-hacker-spectre-va4sgknf",
            "type": "small_business",
            "status": "active",
            "timezone": "UTC",
            "currency": "USD",
            "logoUrl": null,
            "metadata": {
              "pricing": {
                "baseCurrency": "USD",
                "callFeeMinor": 5000,
                "surgeManualEnabled": true
              },
              "availability": {
                "weekly": {
                  "fri": [
                    "09:00-17:00"
                  ],
                  "mon": [
                    "09:00-17:00"
                  ],
                  "thu": [
                    "09:00-17:00"
                  ],
                  "tue": [
                    "09:00-17:00"
                  ],
                  "wed": [
                    "09:00-17:00"
                  ]
                },
                "timezone": "UTC",
                "leadTimeHours": 24,
                "maxAdvanceDays": 60
              }
            },
            "membershipRole": "owner"
          },
          {
            "id": "3AH7OEFARIPdKfLgpvpIO9PWcFZ",
            "name": "Saga uc-100-the-appointment-heavy-professional-dr-ch",
            "slug": "uc-100-the-appointment-heavy-professional-dr-ch-en8e1ofl",
            "type": "small_business",
            "status": "active",
            "timezone": "UTC",
            "currency": "USD",
            "logoUrl": null,
            "metadata": {
              "pricing": {
                "baseCurrency": "USD",
                "callFeeMinor": 5000,
                "surgeManualEnabled": true
              },
              "availability": {
                "weekly": {
                  "fri": [
                    "09:00-17:00"
                  ],
                  "mon": [
                    "09:00-17:00"
                  ],
                  "thu": [
                    "09:00-17:00"
                  ],
                  "tue": [
                    "09:00-17:00"
                  ],
                  "wed": [
                    "09:00-17:00"
                  ]
                },
                "timezone": "UTC",
                "leadTimeHours": 24,
                "blockedWindows": [
                  {
                    "endAt": "2026-03-03T09:50:00.000Z",
                    "reason": "emergency_hold",
                    "startAt": "2026-03-03T09:00:00.000Z"
                  }
                ],
                "maxAdvanceDays": 60
              }
            },
            "membershipRole": "owner"
          },
          {
            "id": "3AH7KuMvdXsBqOI22mY7QESLREC",
            "name": "Saga uc-10-the-multi-location-owner-marcus",
            "slug": "uc-10-the-multi-location-owner-marcus-zb0skbmq",
            "type": "small_business",
            "status": "active",
            "timezone": "UTC",
            "currency": "USD",
            "logoUrl": null,
            "metadata": {
              "pricing": {
                "baseCurrency": "USD",
                "callFeeMinor": 5000,
                "surgeManualEnabled": true
              },
              "availability": {
                "weekly": {
                  "fri": [
                    "09:00-17:00"
                  ],
                  "mon": [
                    "09:00-17:00"
                  ],
                  "thu": [
                    "09:00-17:00"
                  ],
                  "tue": [
                    "09:00-17:00"
                  ],
                  "wed": [
                    "09:00-17:00"
                  ]
                },
                "timezone": "UTC",
                "leadTimeHours": 24,
                "maxAdvanceDays": 60
              }
            },
            "membershipRole": "owner"
          },
          {
            "id": "3AH7KLzkwF8HiTrs5CWxXVaLiJP",
            "name": "Saga uc-10-the-confused-multi-biz-user-sam-payment-shadow",
            "slug": "uc-10-the-confused-multi-biz-user-sam-payment-shadow-kxa9v0bx",
            "type": "small_business",
            "status": "active",
            "timezone": "UTC",
            "currency": "USD",
            "logoUrl": null,
            "metadata": {},
            "membershipRole": "owner"
          },
          {
            "id": "3AH7I2KnaudHSbhwVsiT20GtNUt",
            "name": "Saga uc-10-the-confused-multi-biz-user-sam",
            "slug": "uc-10-the-confused-multi-biz-user-sam-qw1ledsz",
            "type": "small_business",
            "status": "active",
            "timezone": "UTC",
            "currency": "USD",
            "logoUrl": null,
            "metadata": {
              "pricing": {
                "baseCurrency": "USD",
                "callFeeMinor": 5000,
                "surgeManualEnabled": true
              },
              "availability": {
                "weekly": {
                  "fri": [
                    "09:00-17:00"
                  ],
                  "mon": [
                    "09:00-17:00"
                  ],
                  "thu": [
                    "09:00-17:00"
                  ],
                  "tue": [
                    "09:00-17:00"
                  ],
                  "wed": [
                    "09:00-17:00"
                  ]
                },
                "timezone": "UTC",
                "leadTimeHours": 24,
                "maxAdvanceDays": 60
              }
            },
            "membershipRole": "owner"
          }
        ]
      }
    },
    "apiCalls": [
      {
        "method": "POST",
        "path": "/api/v1/bizes",
        "status": 201,
        "requestBody": {
          "name": "Robert'); DROP TABLE bizes;-- xug3",
          "slug": "sql-safe-1yj3azry",
          "type": "small_business"
        },
        "responseBody": {
          "success": true,
          "data": {
            "id": "3AH7Uar6baVAhqcHoVG1pxd2Gfv",
            "name": "Robert'); DROP TABLE bizes;-- xug3",
            "slug": "sql-safe-1yj3azry",
            "type": "small_business",
            "logoUrl": null,
            "timezone": "UTC",
            "currency": "USD",
            "status": "active",
            "metadata": {},
            "createdAt": "2026-02-28T00:14:18.335Z",
            "updatedAt": "2026-02-28T00:14:18.335Z",
            "deletedAt": null,
            "createdBy": null,
            "updatedBy": null,
            "deletedBy": null
          },
          "meta": {
            "requestId": "e5b884e8-d6d9-41f3-b9c0-dbcbcbec7f48",
            "timestamp": "2026-02-28T00:14:18.339Z"
          }
        },
        "at": "2026-02-28T00:14:18.341Z"
      },
      {
        "method": "GET",
        "path": "/api/v1/bizes?perPage=5",
        "status": 200,
        "responseBody": {
          "success": true,
          "data": [
            {
              "id": "3AH7RbiUErLFSvE2rZbu7JIDXjZ",
              "name": "Saga uc-100-the-black-hat-hacker-spectre",
              "slug": "uc-100-the-black-hat-hacker-spectre-va4sgknf",
              "type": "small_business",
              "status": "active",
              "timezone": "UTC",
              "currency": "USD",
              "logoUrl": null,
              "metadata": {
                "pricing": {
                  "baseCurrency": "USD",
                  "callFeeMinor": 5000,
                  "surgeManualEnabled": true
                },
                "availability": {
                  "weekly": {
                    "fri": [
                      "09:00-17:00"
                    ],
                    "mon": [
                      "09:00-17:00"
                    ],
                    "thu": [
                      "09:00-17:00"
                    ],
                    "tue": [
                      "09:00-17:00"
                    ],
                    "wed": [
                      "09:00-17:00"
                    ]
                  },
                  "timezone": "UTC",
                  "leadTimeHours": 24,
                  "maxAdvanceDays": 60
                }
              },
              "membershipRole": "owner"
            },
            {
              "id": "3AH7OEFARIPdKfLgpvpIO9PWcFZ",
              "name": "Saga uc-100-the-appointment-heavy-professional-dr-ch",
              "slug": "uc-100-the-appointment-heavy-professional-dr-ch-en8e1ofl",
              "type": "small_business",
              "status": "active",
              "timezone": "UTC",
              "currency": "USD",
              "logoUrl": null,
              "metadata": {
                "pricing": {
                  "baseCurrency": "USD",
                  "callFeeMinor": 5000,
                  "surgeManualEnabled": true
                },
                "availability": {
                  "weekly": {
                    "fri": [
                      "09:00-17:00"
                    ],
                    "mon": [
                      "09:00-17:00"
                    ],
                    "thu": [
                      "09:00-17:00"
                    ],
                    "tue": [
                      "09:00-17:00"
                    ],
                    "wed": [
                      "09:00-17:00"
                    ]
                  },
                  "timezone": "UTC",
                  "leadTimeHours": 24,
                  "blockedWindows": [
                    {
                      "endAt": "2026-03-03T09:50:00.000Z",
                      "reason": "emergency_hold",
                      "startAt": "2026-03-03T09:00:00.000Z"
                    }
                  ],
                  "maxAdvanceDays": 60
                }
              },
              "membershipRole": "owner"
            },
            {
              "id": "3AH7KuMvdXsBqOI22mY7QESLREC",
              "name": "Saga uc-10-the-multi-location-owner-marcus",
              "slug": "uc-10-the-multi-location-owner-marcus-zb0skbmq",
              "type": "small_business",
              "status": "active",
              "timezone": "UTC",
              "currency": "USD",
              "logoUrl": null,
              "metadata": {
                "pricing": {
                  "baseCurrency": "USD",
                  "callFeeMinor": 5000,
                  "surgeManualEnabled": true
                },
                "availability": {
                  "weekly": {
                    "fri": [
                      "09:00-17:00"
                    ],
                    "mon": [
                      "09:00-17:00"
                    ],
                    "thu": [
                      "09:00-17:00"
                    ],
                    "tue": [
                      "09:00-17:00"
                    ],
                    "wed": [
                      "09:00-17:00"
                    ]
                  },
                  "timezone": "UTC",
                  "leadTimeHours": 24,
                  "maxAdvanceDays": 60
                }
              },
              "membershipRole": "owner"
            },
            {
              "id": "3AH7KLzkwF8HiTrs5CWxXVaLiJP",
              "name": "Saga uc-10-the-confused-multi-biz-user-sam-payment-shadow",
              "slug": "uc-10-the-confused-multi-biz-user-sam-payment-shadow-kxa9v0bx",
              "type": "small_business",
              "status": "active",
              "timezone": "UTC",
              "currency": "USD",
              "logoUrl": null,
              "metadata": {},
              "membershipRole": "owner"
            },
            {
              "id": "3AH7I2KnaudHSbhwVsiT20GtNUt",
              "name": "Saga uc-10-the-confused-multi-biz-user-sam",
              "slug": "uc-10-the-confused-multi-biz-user-sam-qw1ledsz",
              "type": "small_business",
              "status": "active",
              "timezone": "UTC",
              "currency": "USD",
              "logoUrl": null,
              "metadata": {
                "pricing": {
                  "baseCurrency": "USD",
                  "callFeeMinor": 5000,
                  "surgeManualEnabled": true
                },
                "availability": {
                  "weekly": {
                    "fri": [
                      "09:00-17:00"
                    ],
                    "mon": [
                      "09:00-17:00"
                    ],
                    "thu": [
                      "09:00-17:00"
                    ],
                    "tue": [
                      "09:00-17:00"
                    ],
                    "wed": [
                      "09:00-17:00"
                    ]
                  },
                  "timezone": "UTC",
                  "leadTimeHours": 24,
                  "maxAdvanceDays": 60
                }
              },
              "membershipRole": "owner"
            }
          ],
          "meta": {
            "requestId": "6d1411ba-30cc-4f70-8389-473ce52a74e4",
            "timestamp": "2026-02-28T00:14:18.391Z"
          },
          "pagination": {
            "page": 1,
            "perPage": 5,
            "total": 11,
            "hasMore": true
          }
        },
        "at": "2026-02-28T00:14:18.392Z"
      }
    ]
  },
  "metadata": {}
}
